Exploring the BRFSS data
…
From the log above, $ sleptim1 : int  NA 6 9 8 6 8 7 6 8 8 ..., we can see that the variable is a discrete numerical variable (int) from 0 to 24 that represents how much on average subjectively does a responded sleep in a 24h period. There are two observations with corrupted data - 103 and 403 which makes no sense since the top possible number in a day period is 24 (page 3 of the table below). The Dont know/Not Sure (6,540) and Refused combined into observations with NA values about .17 percent (.15 percent weighted). Besides the fact that the long sleep (over 15 hours) might be a legit answer, the naked truth might be different since no human can sleep that long on average, we can suspect that some of the respondent biases involved.

data %>% group_by(sleptim1) %>% summarise(n = n())

## # A tibble: 28 x 2
##    sleptim1      n
##       <int>  <int>
##  1        0      1
##  2        1    228
##  3        2   1076
##  4        3   3496
##  5        4  14261
##  6        5  33436
##  7        6 106197
##  8        7 142469
##  9        8 141102
## 10        9  23800
## # ... with 18 more rows
…
As we can see, the level of depression varies among the not working and working levels, the most significant difference can be spotted for the A little (11%) and Most (9%) levels. With a moderate confidence, we can state a correlation.

Recap

As we saw, the majority of veterans ~90% does not feel depressed at all, besides that fact we have found that there is indeed some correlation between veteran occupation status and depression levels thus veterans that are not employed are more likely to feel depressed.

Research question 3:

Are people who eatfruits(fruit1) or dark vegetables(fvgreen) are also have better general health(genhlth)?

Let see what data do we have:

data %>% group_by(fruit1) %>% summarize(n = n())

## # A tibble: 145 x 2
##    fruit1      n
##     <int>  <int>
##  1      0  17894
##  2      1      1
##  3      2      2
##  4    101 116116
##  5    102  62156
##  6    103  23802
##  7    104   5350
##  8    105   2733
##  9    106    535
## 10    107    264
## # ... with 135 more rows

data %>% group_by(fvgreen) %>% summarize(n = n())

## # A tibble: 131 x 2
##    fvgreen     n
##      <int> <int>
##  1       0 36455
##  2       1     1
##  3       2     2
##  4     101 63411
##  5     102 17572
##  6     103  3473
##  7     104   821
##  8     105   594
##  9     106    61
## 10     107    64
## # ... with 121 more rows
…
The point where the correlation changes direction might be interesting in further data exploration if we will conduct a controlled experiment.

Fruits consumtion vs General health

We had found the correlation for the vegetables, lets see if there any correlation with for general health and amount of fruits eaten. First lets see the data:

data_fruit %>% group_by(fruit1) %>% summarise(n = n())

## # A tibble: 142 x 2
##    fruit1      n
##     <int>  <int>
##  1      0  17344
##  2      2      1
##  3    101 114015
##  4    102  61385
##  5    103  23535
##  6    104   5291
##  7    105   2687
##  8    106    524
##  9    107    248
## 10    108     77
## # ... with 132 more rows
…
